{
    "sensors": [
        "temperature",
        "humidity"
    ],
    "trigger_values": {
        "temperature": []
    },
    "trigger_dictionary": {
        "temperature": "temp",
        "humidity": "humid"
    },
    "rev_trigger_dictionary": {
        "temp": "temperature",
        "humid": "humidity"
    },
    "units": {
        "temperature": "Celcius",
        "humidity": "%"
    }
}
